<?xml version="1.0" standalone="no"?>
<!DOCTYPE svg PUBLIC "-//W3C//DTD SVG 1.1//EN" "http://www.w3.org/Graphics/SVG/1.1/DTD/svg11.dtd" >
<svg xmlns="http://www.w3.org/2000/svg">
<metadata>Generated by IcoMoon</metadata>
<defs>
<font id="icomoon" horiz-adv-x="512">
<font-face units-per-em="512" ascent="480" descent="-32" />
<missing-glyph horiz-adv-x="512" />
<glyph unicode="&#x20;" d="" horiz-adv-x="256" />
<glyph unicode="&#xe600;" d="M226.201 64.17l-165.249-54.18c242.455 200.466 289.863 451.048 289.863 453.757 1.354 5.418-2.709 10.836-8.127 12.19s-10.836-2.709-12.19-8.127c0-2.709-47.407-249.227-288.508-446.984l74.498 167.957c2.709 5.418 0 10.836-5.418 13.545s-10.836 0-13.545-5.418l-92.106-208.593c-1.354-4.063-1.354-8.127 1.354-10.836 1.354-2.709 4.063-2.709 8.127-2.709 1.355 0 2.709 0 2.709 0l214.011 69.079c5.418 1.354 8.127 8.127 6.773 12.19-1.355 6.772-8.127 9.481-12.191 8.127z" horiz-adv-x="358" />
<glyph unicode="&#xe601;" d="M352.17-13.037l-92.106 208.593c-2.709 5.418-8.127 6.772-13.545 5.418-5.418-2.709-8.127-8.127-5.418-13.545l74.498-167.958c-241.101 196.402-288.508 444.275-288.508 446.984-1.355 5.418-6.773 8.127-12.191 8.127-5.418-1.355-9.482-6.773-8.127-12.19 0-2.709 48.762-253.291 291.217-453.757l-165.249 54.18c-5.418 1.354-10.836-2.709-13.545-8.127-1.355-5.418 1.355-10.836 6.772-12.19l214.010-69.079c1.354 0 2.709 0 2.709 0 2.709 0 5.418 1.354 8.127 2.709 2.709 2.709 4.063 6.772 1.354 10.836z" horiz-adv-x="358" />
<glyph unicode="&#xe602;" d="M512 480h-469.334c-22.756 0-42.666-18.489-42.666-42.666v-341.334c0-22.755 19.911-42.666 42.666-42.666h192v-64h-21.334c-11.378 0-21.334-9.955-21.334-21.334h170.666c0 11.378-9.956 21.334-21.334 21.334h-21.334v64h192c22.755 0 42.667 19.911 42.667 42.666v341.334c0 24.178-19.911 42.666-42.666 42.666zM512 160h-469.334v277.334h469.334v-277.334z" horiz-adv-x="555" />
<glyph unicode="&#xe603;" d="M507.803 224c0-139.067-112.736-251.803-251.804-251.803s-251.804 112.736-251.804 251.804c0 139.067 112.736 251.804 251.804 251.804s251.804-112.736 251.804-251.804zM356.721 280.236l-43.646 44.485-57.076-57.076-57.076 57.076-43.646-44.485 57.076-56.236-57.076-57.075 43.646-43.646 57.076 56.236 57.076-56.236 43.646 43.646-57.075 57.076z" horiz-adv-x="511" />
<glyph unicode="&#xe604;" d="M322.844 364.8c-28.445 0-51.2 22.755-51.2 51.2v64h-220.445c-28.445 0-51.2-22.755-51.2-51.2v-409.6c0-28.445 22.756-51.2 51.2-51.2h283.022c28.445 0 51.2 22.755 51.2 51.2v345.6h-62.578zM308.622 50.489h-231.822c-9.956 0-19.911 8.534-19.911 19.911 0 9.956 8.534 19.911 19.911 19.911h231.822c9.955 0 19.911-8.534 19.911-19.911-1.422-11.378-9.956-19.911-19.911-19.911zM308.622 124.445h-231.822c-9.956 0-19.911 8.534-19.911 19.911 0 9.956 8.534 19.911 19.911 19.911h231.822c9.955 0 19.911-8.534 19.911-19.911-1.422-11.378-9.956-19.911-19.911-19.911zM308.622 198.4h-231.822c-9.956 0-19.911 8.534-19.911 19.911s8.534 19.911 19.911 19.911h231.822c9.955 0 19.911-8.534 19.911-19.911s-9.956-19.911-19.911-19.911zM308.622 272.356h-231.822c-9.956 0-19.911 8.534-19.911 19.911 0 9.955 8.534 19.911 19.911 19.911h231.822c9.955 0 19.911-8.534 19.911-19.911-1.422-11.378-9.956-19.911-19.911-19.911z" horiz-adv-x="386" />
<glyph unicode="&#xe605;" d="M512 224c0-141.385-114.615-256-256-256s-256 114.615-256 256c0 141.385 114.615 256 256 256s256-114.615 256-256z" />
<glyph unicode="&#xe606;" d="M81.773 367.103c0 0-0.611 0-0.611 0-2.441 0.611-4.272 3.051-3.662 5.493l14.646 91.538-76.891-49.431c-1.831-1.22-4.882-0.611-6.102 1.221s-0.611 4.882 1.22 6.103l85.435 54.923c1.221 1.22 3.662 1.22 4.882 0s2.441-3.052 1.831-4.272l-16.477-101.912c0-2.441-2.441-3.661-4.272-3.661zM133.035-30.779c-0.611 0-1.831 0-2.441 0.611-1.22 0.611-98.861 66.517-123.27 191.009-18.918 95.199 9.154 198.942 82.994 308.176 1.221 1.831 4.272 2.441 6.103 1.221s2.441-4.272 1.221-6.103c-72.010-107.404-99.471-208.706-81.163-301.464 23.189-120.829 117.778-184.906 118.999-185.516 1.831-1.221 2.441-4.272 1.22-6.103-0.611-1.221-2.441-1.831-3.661-1.831z" horiz-adv-x="139" />
<glyph unicode="&#xe607;" d="M385.606 180.084l359.899 299.916c-2.143 0-4.284 0-6.427 0h-706.946c-2.142 0-4.285 0-6.427-2.142l359.899-297.774zM771.213 447.866c0 4.285 0 6.427-2.143 8.569l-254.929-212.083 254.929-254.929c0 2.142 2.143 4.284 2.143 8.569v449.875zM2.143 456.435c-2.143-2.142-2.143-4.284-2.143-8.569v-449.875c0-2.142 0-4.284 2.143-8.569l254.929 254.929-254.929 212.083zM490.577 225.071l-94.26-79.263c-2.142-2.142-6.427-4.284-10.712-4.284s-6.427 2.142-10.712 4.284l-94.26 77.121-257.071-257.071c4.285 0 6.427 0 8.569 0h706.946c2.143 0 4.284 0 8.569 2.142l-257.071 257.071z" horiz-adv-x="771" />
<glyph unicode="&#xe608;" d="M1.422-32l28.445 137.481c-19.437 36.504-29.866 77.748-29.866 118.993 0 140.8 114.726 255.526 255.526 255.526s255.526-114.726 255.526-255.526c0-140.8-114.726-255.526-255.526-255.526-40.77 0-81.067 9.956-117.096 28.445l-137.007-29.392zM145.541 55.704l9.956-5.689c30.34-17.541 64.948-27.022 100.030-27.022 110.933 0 201.007 90.074 201.007 201.007s-90.074 201.007-201.007 201.007c-110.933 0-201.007-90.074-201.007-201.007 0-35.555 9.481-70.637 27.971-101.926l5.689-9.955-18.963-75.852 76.326 19.437zM328.060 278.044c0-6.637-0.948-12.8-2.37-18.015s-3.793-9.956-7.111-14.222c-2.844-4.267-6.637-8.534-10.904-12.326s-9.007-7.585-14.222-11.852c-3.318-2.844-6.163-5.215-8.060-7.111-2.37-1.897-3.793-4.267-5.215-6.163-1.422-2.37-1.897-4.267-2.844-6.637-0.474-2.37-0.948-5.215-0.948-8.534v-8.060h-48.356v11.852c0 5.215 0.474 9.956 1.422 14.222s2.37 8.060 4.74 11.378c1.897 3.319 4.74 7.111 7.585 9.956 2.845 3.319 6.637 6.637 10.429 9.956l9.956 9.482c3.318 3.319 6.637 6.163 9.007 9.956 2.37 3.318 3.793 7.585 3.793 12.326 0 6.637-1.897 11.852-6.163 15.644-3.793 3.792-9.481 5.689-16.593 5.689-8.534 0-15.171-2.845-19.437-9.007-4.267-5.689-6.637-12.326-7.111-19.911l-49.304 5.215c1.422 10.904 4.267 20.859 8.534 29.392s9.956 15.644 17.066 20.859c7.111 5.689 14.696 9.956 23.703 12.326 9.007 2.845 18.489 4.267 27.971 4.267s18.489-1.422 27.022-3.319c8.534-2.37 16.592-6.163 23.23-10.904 6.637-5.215 12.326-11.378 16.592-19.437 5.215-7.111 7.585-16.118 7.585-27.022zM282.548 141.511c0-8.060-2.844-15.171-8.534-20.86s-12.8-8.534-21.334-8.534c-4.267 0-8.060 0.948-11.378 2.37-3.792 1.422-6.637 3.318-9.482 6.163s-5.215 5.689-6.637 9.481c-1.422 3.318-2.37 7.111-2.37 11.378 0 3.793 0.948 7.585 2.37 11.378s3.792 6.637 6.637 9.481c2.845 2.844 6.163 4.74 9.956 6.163s7.585 2.37 11.852 2.37c4.266 0 8.059-0.948 11.378-2.37 3.793-1.422 6.637-3.793 9.481-6.163s4.74-5.689 6.637-9.481c0.474-3.318 1.422-7.111 1.422-11.378z" horiz-adv-x="511" />
<glyph unicode="&#xe609;" d="M411.733 87.466c-10.666-25.6-25.6-44.8-42.666-64-19.2-17.067-40.534-32-68.267-40.534-25.6-10.666-55.466-14.933-87.466-14.933s-61.867 4.267-89.6 14.933c-25.6 10.666-49.066 23.466-66.133 40.534-19.2 17.067-32 38.4-42.666 64s-14.934 51.2-14.934 81.067v311.466h119.466v-300.8c0-12.8 2.133-25.6 4.266-38.4 4.266-12.8 10.666-23.466 17.067-32 8.534-10.666 17.066-19.2 29.867-23.466 12.8-6.4 25.6-8.534 42.667-8.534s32 2.134 42.666 8.534c12.8 6.4 21.334 12.8 29.866 23.466s12.8 21.334 17.067 32c4.267 12.8 4.267 25.6 4.267 38.4v300.8h119.466v-311.466c0-29.866-4.267-55.466-14.933-81.067zM765.866 89.6c-4.266-21.334-12.8-40.534-25.6-59.733-12.8-17.067-27.734-32-49.067-44.8-21.333-10.666-49.067-17.067-83.2-17.067-42.667 0-76.8 10.666-106.666 32-27.733 21.334-46.933 49.067-55.466 83.2l106.666 36.267c4.266-12.8 8.534-23.466 17.067-32s19.2-12.8 32-12.8c19.2 0 32 6.4 38.4 21.334 6.4 12.8 8.534 32 8.534 53.334v330.666h121.6v-328.534c2.134-19.2 0-40.534-4.266-61.866z" horiz-adv-x="773" />
<glyph unicode="&#xe60a;" d="M1486.825-26.214c-2.892 0-5.785 0-8.678 2.892l-445.469 199.593c-11.571 5.786-14.463 17.356-11.571 28.926 5.785 11.57 17.356 14.464 28.927 11.57l402.079-179.345-130.169 407.865c-2.892 11.57 2.892 23.141 14.464 26.034s23.141-2.892 26.034-14.464l144.633-457.039c2.892-8.678 0-17.356-5.785-23.141-2.892 0-8.678-2.892-14.464-2.892zM1452.113 14.283c-5.785 0-11.571 2.892-17.356 8.678-216.949 269.017-448.361 404.972-694.237 404.972-396.294 0-691.345-367.367-694.237-370.26-8.678-8.678-20.248-11.57-31.819-2.892-8.678 8.678-11.57 20.248-2.893 31.819 11.571 14.464 309.514 384.723 726.057 384.723 0 0 2.893 0 2.893 0 257.447 0 503.322-141.74 726.057-422.327 8.678-8.678 5.785-23.141-2.892-31.819-2.892 0-8.678-2.892-11.571-2.892z" horiz-adv-x="1513" />
<glyph unicode="&#xe60b;" d="M362.666 266.667v64c0 0 0 149.333-149.333 149.333s-149.333-149.333-149.333-149.333v-64h-64v-298.667h426.666v298.666h-64zM234.667 102.4v-70.4h-42.667v70.4c-12.8 6.4-21.334 21.334-21.334 36.267 0 23.466 19.2 42.666 42.666 42.666s42.666-19.2 42.666-42.666c0-14.933-8.534-29.866-21.334-36.267zM298.666 266.667h-170.667v64c0 17.066 0 85.333 85.333 85.333s85.334-68.266 85.334-85.333v-64z" horiz-adv-x="427" />
<glyph unicode="&#xe60c;" d="M400.695 238.84c-25.971 0-44.522-22.261-44.522-44.522 0-70.493-59.363-129.855-129.855-129.855s-129.855 59.363-129.855 129.855c0 70.493 59.363 129.855 129.855 129.855v-66.783l96.464 55.652 92.754 55.652-192.928 111.305v-66.782c-122.435 0-222.608-100.174-222.608-222.609s100.174-222.608 222.608-222.608c122.435 0 222.608 100.174 222.608 222.608 0 25.971-22.261 48.232-44.522 48.232z" horiz-adv-x="445" />
<glyph unicode="&#xe60d;" d="M26.331-29.075c-5.852 0-11.703 2.925-14.629 5.851-5.851 5.851-8.777 14.628-5.851 23.406l146.286 462.263c2.925 8.777 17.554 17.555 29.257 11.703 11.703-2.925 17.554-14.628 14.629-26.331l-134.583-415.452 406.675 181.394c11.703 5.851 23.406 0 29.257-11.703s0-23.406-11.703-29.257l-450.56-201.875c-2.925 0-5.852 0-8.777 0zM64.365 11.885c-5.852 0-8.777 2.925-14.629 5.851-8.777 8.777-11.703 20.48-2.925 32.183 225.28 280.868 473.966 424.228 734.355 424.228 0 0 2.926 0 2.926 0 421.303 0 722.652-374.491 737.28-392.046 8.777-8.777 5.851-23.406-2.926-32.183s-23.406-5.851-32.183 2.925c-2.926 2.925-301.349 374.491-702.172 374.491 0 0 0 0-2.926 0-245.76 0-482.743-137.508-702.172-409.6-2.925-2.925-8.777-5.851-14.629-5.851z" horiz-adv-x="1527" />
<glyph unicode="&#xe60e;" d="M160.494 272.036c-4.521 0-7.911 3.391-7.911 6.781l-29.386 169.536-105.112-132.238c-3.39-3.39-7.912-4.521-12.432-1.13-3.39 3.39-4.521 7.911-1.13 12.433l116.415 146.932c2.26 2.26 5.651 3.39 9.042 3.39 3.391-1.13 5.651-4.521 5.651-7.911l32.777-187.62c1.13-4.521-2.261-9.042-6.781-10.172 0 0-1.13 0-1.13 0zM421.58-29.74c0 0 0 0 0 0-9.042 1.13-193.272 16.954-284.821 151.452-56.512 83.638-64.424 194.402-22.605 327.771 1.13 4.521 5.651 7.911 10.172 5.651 4.521-1.13 6.782-5.651 5.651-10.172-40.689-128.847-33.907-233.96 20.345-313.077 87.029-128.847 270.128-144.671 272.389-144.671 4.521 0 7.911-4.521 7.911-9.042-1.13-4.521-4.521-7.911-9.042-7.911z" horiz-adv-x="432" />
<glyph unicode="&#xe60f;" d="M209.066-32l-209.066 209.067 93.867 98.134 115.2-119.466 324.267 324.267 93.866-93.867z" horiz-adv-x="627" />
<glyph unicode="&#xe610;" d="M629.76 418.56c-23.894-10.24-47.787-17.067-75.093-20.48 27.307 15.36 47.787 40.96 56.32 71.68-25.6-15.36-52.907-25.6-81.92-30.72-22.187 25.6-56.32 40.96-92.16 40.96-71.68 0-129.707-58.026-129.707-129.707 0-10.24 1.707-20.48 3.413-29.014-107.52 5.12-203.094 56.32-266.24 134.827-11.947-18.773-17.067-40.96-17.067-64.853 0-44.374 22.186-83.627 58.026-107.52-20.48 0-40.96 6.827-58.026 15.36 0 0 0-1.707 0-1.707 0-63.147 44.373-114.346 104.106-126.293-10.24-3.413-22.186-5.12-34.133-5.12-8.534 0-17.067 0-23.894 1.707 17.067-51.2 64.853-88.747 121.174-90.454-44.374-34.134-100.694-54.613-160.427-54.613-10.24 0-20.48 0-30.72 1.707 54.614-34.133 121.174-56.32 194.56-56.32 237.227 0 366.933 196.267 366.933 366.933 0 5.12 0 11.947 0 17.067 25.6 18.773 47.787 40.96 64.853 66.56z" horiz-adv-x="630" />
</font></defs></svg>